simulation/qsim/Traffic_Ligh_Controller.msim.vcd
$comment
	File created using the following command:
		vcd file Traffic_Ligh_Controller.msim.vcd -direction
$end
$date
	Sun Dec 28 02:03:41 2025
$end
$version
	ModelSim Version 10.1d
$end
$timescale
	1ps
$end
$scope module traffic_light_controller_vlg_vec_tst $end
$var reg 1 ! clk $end
$var reg 1 " reset_n $end
$var reg 1 # sensor_E $end
$var reg 1 $ sensor_N $end
$var wire 1 % G_E $end
$var wire 1 & G_N $end
$var wire 1 ' R_E $end
$var wire 1 ( R_N $end
$var wire 1 ) Y_E $end
$var wire 1 * Y_N $end
$var wire 1 + digit_sel [1] $end
$var wire 1 , digit_sel [0] $end
$var wire 1 - seg [6] $end
$var wire 1 . seg [5] $end
$var wire 1 / seg [4] $end
$var wire 1 0 seg [3] $end
$var wire 1 1 seg [2] $end
$var wire 1 2 seg [1] $end
$var wire 1 3 seg [0] $end
$var wire 1 4 sampler $end
$scope module i1 $end
$var wire 1 5 gnd $end
$var wire 1 6 vcc $end
$var wire 1 7 unknown $end
$var tri1 1 8 devclrn $end
$var tri1 1 9 devpor $end
$var tri1 1 : devoe $end
$var wire 1 ; G_N~output_o $end
$var wire 1 < Y_N~output_o $end
$var wire 1 = R_N~output_o $end
$var wire 1 > G_E~output_o $end
$var wire 1 ? Y_E~output_o $end
$var wire 1 @ R_E~output_o $end
$var wire 1 A seg[0]~output_o $end
$var wire 1 B seg[1]~output_o $end
$var wire 1 C seg[2]~output_o $end
$var wire 1 D seg[3]~output_o $end
$var wire 1 E seg[4]~output_o $end
$var wire 1 F seg[5]~output_o $end
$var wire 1 G seg[6]~output_o $end
$var wire 1 H digit_sel[0]~output_o $end
$var wire 1 I digit_sel[1]~output_o $end
$var wire 1 J clk~input_o $end
$var wire 1 K clk_div|divider.counter[0]~27_combout $end
$var wire 1 L reset_n~input_o $end
$var wire 1 M clk_div|divider.counter[0]~28 $end
$var wire 1 N clk_div|divider.counter[1]~29_combout $end
$var wire 1 O clk_div|divider.counter[1]~30 $end
$var wire 1 P clk_div|divider.counter[2]~31_combout $end
$var wire 1 Q clk_div|divider.counter[2]~32 $end
$var wire 1 R clk_div|divider.counter[3]~33_combout $end
$var wire 1 S clk_div|divider.counter[3]~34 $end
$var wire 1 T clk_div|divider.counter[4]~35_combout $end
$var wire 1 U clk_div|divider.counter[4]~36 $end
$var wire 1 V clk_div|divider.counter[5]~37_combout $end
$var wire 1 W clk_div|divider.counter[5]~38 $end
$var wire 1 X clk_div|divider.counter[6]~39_combout $end
$var wire 1 Y clk_div|divider.counter[6]~40 $end
$var wire 1 Z clk_div|divider.counter[7]~41_combout $end
$var wire 1 [ clk_div|divider.counter[7]~42 $end
$var wire 1 \ clk_div|divider.counter[8]~43_combout $end
$var wire 1 ] clk_div|divider.counter[8]~44 $end
$var wire 1 ^ clk_div|divider.counter[9]~45_combout $end
$var wire 1 _ clk_div|divider.counter[9]~46 $end
$var wire 1 ` clk_div|divider.counter[10]~47_combout $end
$var wire 1 a clk_div|divider.counter[10]~48 $end
$var wire 1 b clk_div|divider.counter[11]~49_combout $end
$var wire 1 c clk_div|divider.counter[11]~50 $end
$var wire 1 d clk_div|divider.counter[12]~51_combout $end
$var wire 1 e clk_div|divider.counter[12]~52 $end
$var wire 1 f clk_div|divider.counter[13]~53_combout $end
$var wire 1 g clk_div|divider.counter[13]~54 $end
$var wire 1 h clk_div|divider.counter[14]~55_combout $end
$var wire 1 i clk_div|LessThan0~0_combout $end
$var wire 1 j clk_div|LessThan0~1_combout $end
$var wire 1 k clk_div|LessThan0~2_combout $end
$var wire 1 l clk_div|LessThan0~3_combout $end
$var wire 1 m clk_div|LessThan0~4_combout $end
$var wire 1 n clk_div|divider.counter[14]~56 $end
$var wire 1 o clk_div|divider.counter[15]~57_combout $end
$var wire 1 p clk_div|divider.counter[15]~58 $end
$var wire 1 q clk_div|divider.counter[16]~59_combout $end
$var wire 1 r clk_div|divider.counter[16]~60 $end
$var wire 1 s clk_div|divider.counter[17]~61_combout $end
$var wire 1 t clk_div|LessThan0~5_combout $end
$var wire 1 u clk_div|divider.counter[17]~62 $end
$var wire 1 v clk_div|divider.counter[18]~63_combout $end
$var wire 1 w clk_div|divider.counter[18]~64 $end
$var wire 1 x clk_div|divider.counter[19]~65_combout $end
$var wire 1 y clk_div|divider.counter[19]~66 $end
$var wire 1 z clk_div|divider.counter[20]~67_combout $end
$var wire 1 { clk_div|divider.counter[20]~68 $end
$var wire 1 | clk_div|divider.counter[21]~69_combout $end
$var wire 1 } clk_div|LessThan0~6_combout $end
$var wire 1 ~ clk_div|divider.counter[21]~70 $end
$var wire 1 !! clk_div|divider.counter[22]~71_combout $end
$var wire 1 "! clk_div|divider.counter[22]~72 $end
$var wire 1 #! clk_div|divider.counter[23]~73_combout $end
$var wire 1 $! clk_div|LessThan0~7_combout $end
$var wire 1 %! clk_div|divider.counter[23]~74 $end
$var wire 1 &! clk_div|divider.counter[24]~75_combout $end
$var wire 1 '! clk_div|divider.counter[24]~76 $end
$var wire 1 (! clk_div|divider.counter[25]~77_combout $end
$var wire 1 )! clk_div|divider.counter[25]~78 $end
$var wire 1 *! clk_div|divider.counter[26]~79_combout $end
$var wire 1 +! clk_div|LessThan0~8_combout $end
$var wire 1 ,! clk_div|clk_out~0_combout $end
$var wire 1 -! clk_div|clk_out~q $end
$var wire 1 .! main_timer|Q[0]~6_combout $end
$var wire 1 /! WideOr0~0_combout $end
$var wire 1 0! main_timer|Q[1]~9 $end
$var wire 1 1! main_timer|Q[2]~11_combout $end
$var wire 1 2! LessThan2~0_combout $end
$var wire 1 3! main_timer|running~q $end
$var wire 1 4! main_timer|Q[3]~10_combout $end
$var wire 1 5! main_timer|Q[2]~12 $end
$var wire 1 6! main_timer|Q[3]~13_combout $end
$var wire 1 7! main_timer|Q[3]~14 $end
$var wire 1 8! main_timer|Q[4]~15_combout $end
$var wire 1 9! main_timer|Q[4]~16 $end
$var wire 1 :! main_timer|Q[5]~17_combout $end
$var wire 1 ;! sensor_N~input_o $end
$var wire 1 <! sensor_E~input_o $end
$var wire 1 =! Selector3~3_combout $end
$var wire 1 >! Selector3~2_combout $end
$var wire 1 ?! timer_start~4_combout $end
$var wire 1 @! WideOr0~1_combout $end
$var wire 1 A! timer_start~q $end
$var wire 1 B! main_timer|Q[0]~7 $end
$var wire 1 C! main_timer|Q[1]~8_combout $end
$var wire 1 D! Selector3~1_combout $end
$var wire 1 E! Selector1~0_combout $end
$var wire 1 F! Selector1~1_combout $end
$var wire 1 G! Selector1~2_combout $end
$var wire 1 H! state_reg.STATE_N_YELLOW~q $end
$var wire 1 I! Selector2~2_combout $end
$var wire 1 J! Selector2~3_combout $end
$var wire 1 K! state_reg.STATE_E_GREEN~q $end
$var wire 1 L! Selector3~4_combout $end
$var wire 1 M! state_reg.STATE_E_YELLOW~q $end
$var wire 1 N! Selector2~1_combout $end
$var wire 1 O! Selector0~0_combout $end
$var wire 1 P! Selector0~1_combout $end
$var wire 1 Q! state_reg.STATE_N_GREEN~q $end
$var wire 1 R! Y_N~0_combout $end
$var wire 1 S! display_time~0_combout $end
$var wire 1 T! display_time[5]~1_combout $end
$var wire 1 U! Add0~1_cout $end
$var wire 1 V! Add0~3 $end
$var wire 1 W! Add0~5 $end
$var wire 1 X! Add0~7 $end
$var wire 1 Y! Add0~8_combout $end
$var wire 1 Z! Add1~1_cout $end
$var wire 1 [! Add1~3 $end
$var wire 1 \! Add1~5 $end
$var wire 1 ]! Add1~6_combout $end
$var wire 1 ^! Add0~13_combout $end
$var wire 1 _! Add0~6_combout $end
$var wire 1 `! Add1~4_combout $end
$var wire 1 a! Add0~14_combout $end
$var wire 1 b! Div0|auto_generated|divider|divider|add_sub_3_result_int[1]~1 $end
$var wire 1 c! Div0|auto_generated|divider|divider|add_sub_3_result_int[2]~2_combout $end
$var wire 1 d! Add0~9 $end
$var wire 1 e! Add0~10_combout $end
$var wire 1 f! Add1~7 $end
$var wire 1 g! Add1~8_combout $end
$var wire 1 h! Add0~12_combout $end
$var wire 1 i! Div0|auto_generated|divider|divider|add_sub_3_result_int[2]~3 $end
$var wire 1 j! Div0|auto_generated|divider|divider|add_sub_3_result_int[3]~5 $end
$var wire 1 k! Div0|auto_generated|divider|divider|add_sub_3_result_int[4]~6_combout $end
$var wire 1 l! Div0|auto_generated|divider|divider|StageOut[18]~16_combout $end
$var wire 1 m! Div0|auto_generated|divider|divider|add_sub_3_result_int[3]~4_combout $end
$var wire 1 n! Div0|auto_generated|divider|divider|StageOut[18]~17_combout $end
$var wire 1 o! Div0|auto_generated|divider|divider|StageOut[17]~18_combout $end
$var wire 1 p! Div0|auto_generated|divider|divider|StageOut[17]~19_combout $end
$var wire 1 q! Div0|auto_generated|divider|divider|StageOut[16]~20_combout $end
$var wire 1 r! Div0|auto_generated|divider|divider|add_sub_3_result_int[1]~0_combout $end
$var wire 1 s! Div0|auto_generated|divider|divider|StageOut[16]~21_combout $end
$var wire 1 t! Add0~4_combout $end
$var wire 1 u! Add1~2_combout $end
$var wire 1 v! Add0~15_combout $end
$var wire 1 w! Div0|auto_generated|divider|divider|StageOut[15]~22_combout $end
$var wire 1 x! Div0|auto_generated|divider|divider|StageOut[15]~23_combout $end
$var wire 1 y! Div0|auto_generated|divider|divider|add_sub_4_result_int[1]~1 $end
$var wire 1 z! Div0|auto_generated|divider|divider|add_sub_4_result_int[2]~3 $end
$var wire 1 {! Div0|auto_generated|divider|divider|add_sub_4_result_int[3]~5 $end
$var wire 1 |! Div0|auto_generated|divider|divider|add_sub_4_result_int[4]~7_cout $end
$var wire 1 }! Div0|auto_generated|divider|divider|add_sub_4_result_int[5]~8_combout $end
$var wire 1 ~! Div0|auto_generated|divider|divider|StageOut[23]~30_combout $end
$var wire 1 !" Div0|auto_generated|divider|divider|add_sub_4_result_int[3]~4_combout $end
$var wire 1 "" Div0|auto_generated|divider|divider|StageOut[23]~24_combout $end
$var wire 1 #" Div0|auto_generated|divider|divider|StageOut[22]~31_combout $end
$var wire 1 $" Div0|auto_generated|divider|divider|add_sub_4_result_int[2]~2_combout $end
$var wire 1 %" Div0|auto_generated|divider|divider|StageOut[22]~25_combout $end
$var wire 1 &" Div0|auto_generated|divider|divider|StageOut[21]~26_combout $end
$var wire 1 '" Div0|auto_generated|divider|divider|add_sub_4_result_int[1]~0_combout $end
$var wire 1 (" Div0|auto_generated|divider|divider|StageOut[21]~27_combout $end
$var wire 1 )" Add0~2_combout $end
$var wire 1 *" Add0~16_combout $end
$var wire 1 +" Div0|auto_generated|divider|divider|StageOut[20]~28_combout $end
$var wire 1 ," Div0|auto_generated|divider|divider|StageOut[20]~29_combout $end
$var wire 1 -" Div0|auto_generated|divider|divider|add_sub_5_result_int[1]~1_cout $end
$var wire 1 ." Div0|auto_generated|divider|divider|add_sub_5_result_int[2]~3_cout $end
$var wire 1 /" Div0|auto_generated|divider|divider|add_sub_5_result_int[3]~5_cout $end
$var wire 1 0" Div0|auto_generated|divider|divider|add_sub_5_result_int[4]~7_cout $end
$var wire 1 1" Div0|auto_generated|divider|divider|add_sub_5_result_int[5]~8_combout $end
$var wire 1 2" Add0~17_combout $end
$var wire 1 3" mux_clk_div|divider.counter[0]~17_combout $end
$var wire 1 4" mux_clk_div|divider.counter[0]~18 $end
$var wire 1 5" mux_clk_div|divider.counter[1]~19_combout $end
$var wire 1 6" mux_clk_div|divider.counter[1]~20 $end
$var wire 1 7" mux_clk_div|divider.counter[2]~21_combout $end
$var wire 1 8" mux_clk_div|divider.counter[2]~22 $end
$var wire 1 9" mux_clk_div|divider.counter[3]~23_combout $end
$var wire 1 :" mux_clk_div|divider.counter[3]~24 $end
$var wire 1 ;" mux_clk_div|divider.counter[4]~25_combout $end
$var wire 1 <" mux_clk_div|divider.counter[4]~26 $end
$var wire 1 =" mux_clk_div|divider.counter[5]~27_combout $end
$var wire 1 >" mux_clk_div|divider.counter[5]~28 $end
$var wire 1 ?" mux_clk_div|divider.counter[6]~29_combout $end
$var wire 1 @" mux_clk_div|divider.counter[6]~30 $end
$var wire 1 A" mux_clk_div|divider.counter[7]~31_combout $end
$var wire 1 B" mux_clk_div|divider.counter[7]~32 $end
$var wire 1 C" mux_clk_div|divider.counter[8]~33_combout $end
$var wire 1 D" mux_clk_div|divider.counter[8]~34 $end
$var wire 1 E" mux_clk_div|divider.counter[9]~35_combout $end
$var wire 1 F" mux_clk_div|divider.counter[9]~36 $end
$var wire 1 G" mux_clk_div|divider.counter[10]~37_combout $end
$var wire 1 H" mux_clk_div|divider.counter[10]~38 $end
$var wire 1 I" mux_clk_div|divider.counter[11]~39_combout $end
$var wire 1 J" mux_clk_div|divider.counter[11]~40 $end
$var wire 1 K" mux_clk_div|divider.counter[12]~41_combout $end
$var wire 1 L" mux_clk_div|LessThan0~0_combout $end
$var wire 1 M" mux_clk_div|LessThan0~1_combout $end
$var wire 1 N" mux_clk_div|LessThan0~2_combout $end
$var wire 1 O" mux_clk_div|LessThan0~3_combout $end
$var wire 1 P" mux_clk_div|divider.counter[12]~42 $end
$var wire 1 Q" mux_clk_div|divider.counter[13]~43_combout $end
$var wire 1 R" mux_clk_div|divider.counter[13]~44 $end
$var wire 1 S" mux_clk_div|divider.counter[14]~45_combout $end
$var wire 1 T" mux_clk_div|LessThan0~4_combout $end
$var wire 1 U" mux_clk_div|divider.counter[14]~46 $end
$var wire 1 V" mux_clk_div|divider.counter[15]~47_combout $end
$var wire 1 W" mux_clk_div|divider.counter[15]~48 $end
$var wire 1 X" mux_clk_div|divider.counter[16]~49_combout $end
$var wire 1 Y" mux_clk_div|LessThan0~5_combout $end
$var wire 1 Z" mux_clk_div|clk_out~0_combout $end
$var wire 1 [" mux_clk_div|clk_out~q $end
$var wire 1 \" digit_toggle~0_combout $end
$var wire 1 ]" digit_toggle~q $end
$var wire 1 ^" current_digit[0]~2_combout $end
$var wire 1 _" Mod0|auto_generated|divider|divider|add_sub_3_result_int[1]~1 $end
$var wire 1 `" Mod0|auto_generated|divider|divider|add_sub_3_result_int[2]~2_combout $end
$var wire 1 a" Mod0|auto_generated|divider|divider|add_sub_3_result_int[2]~3 $end
$var wire 1 b" Mod0|auto_generated|divider|divider|add_sub_3_result_int[3]~5 $end
$var wire 1 c" Mod0|auto_generated|divider|divider|add_sub_3_result_int[4]~6_combout $end
$var wire 1 d" Mod0|auto_generated|divider|divider|StageOut[18]~16_combout $end
$var wire 1 e" Mod0|auto_generated|divider|divider|add_sub_3_result_int[3]~4_combout $end
$var wire 1 f" Mod0|auto_generated|divider|divider|StageOut[18]~17_combout $end
$var wire 1 g" Mod0|auto_generated|divider|divider|StageOut[17]~18_combout $end
$var wire 1 h" Mod0|auto_generated|divider|divider|StageOut[17]~19_combout $end
$var wire 1 i" Mod0|auto_generated|divider|divider|StageOut[16]~20_combout $end
$var wire 1 j" Mod0|auto_generated|divider|divider|add_sub_3_result_int[1]~0_combout $end
$var wire 1 k" Mod0|auto_generated|divider|divider|StageOut[16]~21_combout $end
$var wire 1 l" Mod0|auto_generated|divider|divider|StageOut[15]~22_combout $end
$var wire 1 m" Mod0|auto_generated|divider|divider|StageOut[15]~23_combout $end
$var wire 1 n" Mod0|auto_generated|divider|divider|add_sub_4_result_int[1]~1 $end
$var wire 1 o" Mod0|auto_generated|divider|divider|add_sub_4_result_int[2]~3 $end
$var wire 1 p" Mod0|auto_generated|divider|divider|add_sub_4_result_int[3]~5 $end
$var wire 1 q" Mod0|auto_generated|divider|divider|add_sub_4_result_int[4]~7_cout $end
$var wire 1 r" Mod0|auto_generated|divider|divider|add_sub_4_result_int[5]~8_combout $end
$var wire 1 s" Mod0|auto_generated|divider|divider|StageOut[23]~30_combout $end
$var wire 1 t" Mod0|auto_generated|divider|divider|add_sub_4_result_int[3]~4_combout $end
$var wire 1 u" Mod0|auto_generated|divider|divider|StageOut[23]~26_combout $end
$var wire 1 v" Mod0|auto_generated|divider|divider|StageOut[22]~31_combout $end
$var wire 1 w" Mod0|auto_generated|divider|divider|add_sub_4_result_int[2]~2_combout $end
$var wire 1 x" Mod0|auto_generated|divider|divider|StageOut[22]~27_combout $end
$var wire 1 y" Mod0|auto_generated|divider|divider|StageOut[21]~28_combout $end
$var wire 1 z" Mod0|auto_generated|divider|divider|add_sub_4_result_int[1]~0_combout $end
$var wire 1 {" Mod0|auto_generated|divider|divider|StageOut[21]~29_combout $end
$var wire 1 |" Mod0|auto_generated|divider|divider|StageOut[20]~24_combout $end
$var wire 1 }" Mod0|auto_generated|divider|divider|StageOut[20]~25_combout $end
$var wire 1 ~" Mod0|auto_generated|divider|divider|add_sub_5_result_int[1]~1 $end
$var wire 1 !# Mod0|auto_generated|divider|divider|add_sub_5_result_int[2]~3 $end
$var wire 1 "# Mod0|auto_generated|divider|divider|add_sub_5_result_int[3]~5 $end
$var wire 1 ## Mod0|auto_generated|divider|divider|add_sub_5_result_int[4]~7_cout $end
$var wire 1 $# Mod0|auto_generated|divider|divider|add_sub_5_result_int[5]~8_combout $end
$var wire 1 %# Mod0|auto_generated|divider|divider|add_sub_5_result_int[1]~0_combout $end
$var wire 1 &# current_digit[1]~3_combout $end
$var wire 1 '# current_digit[1]~6_combout $end
$var wire 1 (# Mod0|auto_generated|divider|divider|add_sub_5_result_int[2]~2_combout $end
$var wire 1 )# current_digit[2]~7_combout $end
$var wire 1 *# current_digit[2]~8_combout $end
$var wire 1 +# current_digit[3]~4_combout $end
$var wire 1 ,# Mod0|auto_generated|divider|divider|add_sub_5_result_int[3]~4_combout $end
$var wire 1 -# current_digit[3]~5_combout $end
$var wire 1 .# seg_decoder|WideOr6~0_combout $end
$var wire 1 /# seg_decoder|WideOr5~0_combout $end
$var wire 1 0# seg_decoder|WideOr4~0_combout $end
$var wire 1 1# seg_decoder|WideOr3~0_combout $end
$var wire 1 2# seg_decoder|WideOr2~0_combout $end
$var wire 1 3# seg_decoder|WideOr1~0_combout $end
$var wire 1 4# seg_decoder|WideOr0~0_combout $end
$var wire 1 5# mux_clk_div|divider.counter [16] $end
$var wire 1 6# mux_clk_div|divider.counter [15] $end
$var wire 1 7# mux_clk_div|divider.counter [14] $end
$var wire 1 8# mux_clk_div|divider.counter [13] $end
$var wire 1 9# mux_clk_div|divider.counter [12] $end
$var wire 1 :# mux_clk_div|divider.counter [11] $end
$var wire 1 ;# mux_clk_div|divider.counter [10] $end
$var wire 1 <# mux_clk_div|divider.counter [9] $end
$var wire 1 =# mux_clk_div|divider.counter [8] $end
$var wire 1 ># mux_clk_div|divider.counter [7] $end
$var wire 1 ?# mux_clk_div|divider.counter [6] $end
$var wire 1 @# mux_clk_div|divider.counter [5] $end
$var wire 1 A# mux_clk_div|divider.counter [4] $end
$var wire 1 B# mux_clk_div|divider.counter [3] $end
$var wire 1 C# mux_clk_div|divider.counter [2] $end
$var wire 1 D# mux_clk_div|divider.counter [1] $end
$var wire 1 E# mux_clk_div|divider.counter [0] $end
$var wire 1 F# clk_div|divider.counter [26] $end
$var wire 1 G# clk_div|divider.counter [25] $end
$var wire 1 H# clk_div|divider.counter [24] $end
$var wire 1 I# clk_div|divider.counter [23] $end
$var wire 1 J# clk_div|divider.counter [22] $end
$var wire 1 K# clk_div|divider.counter [21] $end
$var wire 1 L# clk_div|divider.counter [20] $end
$var wire 1 M# clk_div|divider.counter [19] $end
$var wire 1 N# clk_div|divider.counter [18] $end
$var wire 1 O# clk_div|divider.counter [17] $end
$var wire 1 P# clk_div|divider.counter [16] $end
$var wire 1 Q# clk_div|divider.counter [15] $end
$var wire 1 R# clk_div|divider.counter [14] $end
$var wire 1 S# clk_div|divider.counter [13] $end
$var wire 1 T# clk_div|divider.counter [12] $end
$var wire 1 U# clk_div|divider.counter [11] $end
$var wire 1 V# clk_div|divider.counter [10] $end
$var wire 1 W# clk_div|divider.counter [9] $end
$var wire 1 X# clk_div|divider.counter [8] $end
$var wire 1 Y# clk_div|divider.counter [7] $end
$var wire 1 Z# clk_div|divider.counter [6] $end
$var wire 1 [# clk_div|divider.counter [5] $end
$var wire 1 \# clk_div|divider.counter [4] $end
$var wire 1 ]# clk_div|divider.counter [3] $end
$var wire 1 ^# clk_div|divider.counter [2] $end
$var wire 1 _# clk_div|divider.counter [1] $end
$var wire 1 `# clk_div|divider.counter [0] $end
$var wire 1 a# main_timer|Q [5] $end
$var wire 1 b# main_timer|Q [4] $end
$var wire 1 c# main_timer|Q [3] $end
$var wire 1 d# main_timer|Q [2] $end
$var wire 1 e# main_timer|Q [1] $end
$var wire 1 f# main_timer|Q [0] $end
$upscope $end
$upscope $end
$enddefinitions $end
#0
$dumpvars
0!
0"
1#
1$
0%
1&
1'
0(
0)
0*
0,
1+
03
02
01
00
0/
0.
1-
x4
05
16
x7
18
19
1:
1;
0<
0=
0>
0?
1@
0A
0B
0C
0D
0E
0F
1G
0H
1I
0J
1K
0L
0M
0N
1O
0P
0Q
0R
1S
0T
0U
0V
1W
0X
0Y
0Z
1[
0\
0]
0^
1_
0`
0a
0b
1c
0d
0e
0f
1g
0h
1i
1j
1k
1l
1m
0n
0o
1p
0q
0r
0s
1t
1u
0v
0w
0x
1y
0z
0{
0|
1}
1~
0!!
0"!
0#!
1$!
1%!
0&!
0'!
0(!
1)!
0*!
1+!
0,!
0-!
1.!
0/!
10!
01!
12!
03!
14!
05!
06!
17!
08!
09!
0:!
1;!
1<!
0=!
1>!
0?!
1@!
0A!
0B!
0C!
1D!
0E!
0F!
0G!
0H!
0I!
0J!
0K!
0L!
0M!
0N!
1O!
0P!
0Q!
0R!
1S!
1T!
1U!
0V!
1W!
0X!
1Y!
1Z!
0[!
1\!
0]!
1^!
1_!
0`!
1a!
1b!
1c!
1d!
0e!
0f!
0g!
0h!
0i!
0j!
1k!
0l!
1m!
0n!
1o!
0p!
1q!
0r!
0s!
1t!
1u!
1v!
1w!
0x!
1y!
0z!
1{!
0|!
0}!
0~!
0!"
0""
0#"
1$"
1%"
0&"
0'"
0("
1)"
1*"
0+"
1,"
1-"
0."
1/"
00"
01"
12"
13"
04"
05"
16"
07"
08"
09"
1:"
0;"
0<"
0="
1>"
0?"
0@"
0A"
1B"
0C"
0D"
0E"
1F"
0G"
0H"
0I"
1J"
0K"
1L"
1M"
1N"
1O"
0P"
0Q"
1R"
0S"
1T"
0U"
0V"
1W"
0X"
1Y"
0Z"
0["
1\"
0]"
1^"
1_"
1`"
0a"
0b"
1c"
0d"
1e"
0f"
1g"
0h"
1i"
0j"
0k"
1l"
0m"
1n"
0o"
1p"
0q"
0r"
0s"
0t"
0u"
0v"
1w"
1x"
0y"
0z"
0{"
0|"
1}"
1~"
0!#
1"#
0##
0$#
0%#
0&#
0'#
0(#
0)#
0*#
1+#
0,#
0-#
0.#
0/#
00#
01#
02#
03#
04#
0E#
0D#
0C#
0B#
0A#
0@#
0?#
0>#
0=#
0<#
0;#
0:#
09#
08#
07#
06#
05#
0`#
0_#
0^#
0]#
0\#
0[#
0Z#
0Y#
0X#
0W#
0V#
0U#
0T#
0S#
0R#
0Q#
0P#
0O#
0N#
0M#
0L#
0K#
0J#
0I#
0H#
0G#
0F#
0f#
0e#
0d#
0c#
0b#
0a#
$end
#5000
1!
1J
04
#10000
0!
0J
14
#15000
1!
1J
04
#20000
0!
0J
14
#25000
1!
1J
04
#30000
0!
0J
14
#35000
1!
1J
04
#40000
0!
0J
14
#45000
1!
1J
04
#50000
0!
0J
14
#55000
1!
1J
04
#60000
0!
0J
14
#65000
1!
1J
04
#70000
0!
0J
14
#75000
1!
1J
04
#80000
0!
0J
14
#85000
1!
1J
04
#90000
1"
0!
1L
0J
14
#95000
1!
1J
04
1E#
1`#
14"
03"
1M
0K
15"
1N
#100000
0!
0J
14
#105000
1!
1J
04
1D#
0E#
1_#
0`#
06"
05"
04"
13"
0O
0N
0M
1K
17"
16"
15"
1P
1O
1N
07"
0P
#110000
0!
0J
14
#115000
1!
1J
04
1E#
1`#
14"
03"
1M
0K
06"
05"
0O
0N
17"
1P
#120000
0!
0J
14
#125000
1!
1J
04
1C#
0D#
0E#
1^#
0_#
0`#
18"
07"
16"
15"
04"
13"
1Q
0P
1O
1N
0M
1K
19"
08"
17"
05"
1R
0Q
1P
0N
09"
0R
#130000
0!
0J
14
#135000
1!
1J
04
1E#
1`#
14"
03"
1M
0K
15"
1N
#140000
0!
0J
14
#145000
1!
1J
04
1D#
0E#
1_#
0`#
06"
05"
04"
13"
0O
0N
0M
1K
18"
07"
16"
15"
1Q
0P
1O
1N
19"
08"
17"
1R
0Q
1P
09"
0R
#150000
0!
0J
14
#155000
1!
1J
04
1E#
1`#
0M"
14"
03"
1M
0K
06"
05"
0O
0N
18"
07"
1Q
0P
19"
1R
#160000
0!
0J
14
#165000
1!
1J
04
1B#
0C#
0D#
0E#
1]#
0^#
0_#
0`#
0:"
09"
08"
17"
16"
15"
04"
13"
0S
0R
0Q
1P
1O
1N
0M
1K
1;"
1:"
19"
07"
05"
1T
1S
1R
0P
0N
0;"
0T
#170000
0!
0J
14
#175000
1!
1J
04
1E#
1`#
14"
03"
1M
0K
15"
1N
#180000
0!
0J
14
#185000
1!
1J
04
1D#
0E#
1_#
0`#
06"
05"
04"
13"
0O
0N
0M
1K
17"
16"
15"
1P
1O
1N
07"
0P
#190000
0!
0J
14
#195000
1!
1J
04
1E#
1`#
14"
03"
1M
0K
06"
05"
0O
0N
17"
1P
#200000
0!
0J
14
#205000
1!
1J
04
1C#
0D#
0E#
1^#
0_#
0`#
18"
07"
16"
15"
04"
13"
1Q
0P
1O
1N
0M
1K
0:"
09"
08"
17"
05"
0S
0R
0Q
1P
0N
1;"
1:"
19"
1T
1S
1R
0;"
0T
#210000
0!
0J
14
#215000
1!
1J
04
1E#
1`#
14"
03"
1M
0K
15"
1N
#220000
0!
0J
14
#225000
1!
1J
04
1D#
0E#
1_#
0`#
06"
05"
04"
13"
0O
0N
0M
1K
18"
07"
16"
15"
1Q
0P
1O
1N
0:"
09"
08"
17"
0S
0R
0Q
1P
1;"
1:"
19"
1T
1S
1R
0;"
0T
#230000
0!
0J
14
#235000
1!
1J
04
1E#
1`#
14"
03"
0j
1M
0K
06"
05"
0O
0N
18"
07"
1Q
0P
0:"
09"
0S
0R
1;"
1T
#240000
0!
0J
14
#245000
1!
1J
04
1A#
0B#
0C#
0D#
0E#
1\#
0]#
0^#
0_#
0`#
1<"
0;"
1M"
1:"
19"
08"
17"
16"
15"
04"
13"
1U
0T
1j
1S
1R
0Q
1P
1O
1N
0M
1K
1="
0<"
1;"
09"
07"
05"
1V
0U
1T
0R
0P
0N
0="
0V
#250000
0!
0J
14
#255000
1!
1J
04
1E#
1`#
14"
03"
1M
0K
15"
1N
#260000
0!
0J
14
#265000
1!
1J
04
1D#
0E#
1_#
0`#
06"
05"
04"
13"
0O
0N
0M
1K
17"
16"
15"
1P
1O
1N
07"
0P
#270000
0!
0J
14
#275000
1!
1J
04
1E#
1`#
14"
03"
1M
0K
06"
05"
0O
0N
17"
1P
#280000
0#
0!
0<!
0J
14
#285000
1!
1J
04
1C#
0D#
0E#
1^#
0_#
0`#
18"
07"
16"
15"
04"
13"
1Q
0P
1O
1N
0M
1K
19"
08"
17"
05"
1R
0Q
1P
0N
09"
0R
#290000
0!
0J
14
#295000
1!
1J
04
1E#
1`#
14"
03"
1M
0K
15"
1N
#300000
0!
0J
14
#305000
1!
1J
04
1D#
0E#
1_#
0`#
06"
05"
04"
13"
0O
0N
0M
1K
18"
07"
16"
15"
1Q
0P
1O
1N
19"
08"
17"
1R
0Q
1P
09"
0R
#310000
0!
0J
14
#315000
1!
1J
04
1E#
1`#
0M"
14"
03"
1M
0K
06"
05"
0O
0N
18"
07"
1Q
0P
19"
1R
#320000
0!
0J
14
#325000
1!
1J
04
1B#
0C#
0D#
0E#
1]#
0^#
0_#
0`#
0:"
09"
08"
17"
16"
15"
04"
13"
0S
0R
0Q
1P
1O
1N
0M
1K
1<"
0;"
1:"
19"
07"
05"
1U
0T
1S
1R
0P
0N
1="
0<"
1;"
1V
0U
1T
0="
0V
#330000
0!
0J
14
#335000
1!
1J
04
1E#
1`#
14"
03"
1M
0K
15"
1N
#340000
0!
0J
14
#345000
1!
1J
04
1D#
0E#
1_#
0`#
06"
05"
04"
13"
0O
0N
0M
1K
17"
16"
15"
1P
1O
1N
07"
0P
#350000
0!
0J
14
#355000
1!
1J
04
1E#
1`#
14"
03"
1M
0K
06"
05"
0O
0N
17"
1P
#360000
0!
0J
14
#365000
1!
1J
04
1C#
0D#
0E#
1^#
0_#
0`#
18"
07"
16"
15"
04"
13"
1Q
0P
1O
1N
0M
1K
0:"
09"
08"
17"
05"
0S
0R
0Q
1P
0N
1<"
0;"
1:"
19"
1U
0T
1S
1R
1="
0<"
1;"
1V
0U
1T
0="
0V
#370000
0!
0J
14
#375000
1!
1J
04
1E#
1`#
14"
03"
1M
0K
15"
1N
#380000
0!
0J
14
#385000
1!
1J
04
1D#
0E#
1_#
0`#
06"
05"
04"
13"
0O
0N
0M
1K
18"
07"
16"
15"
1Q
0P
1O
1N
0:"
09"
08"
17"
0S
0R
0Q
1P
1<"
0;"
1:"
19"
1U
0T
1S
1R
1="
0<"
1;"
1V
0U
1T
0="
0V
#390000
0!
0J
14
#395000
1!
1J
04
1E#
1`#
14"
03"
0j
1M
0K
06"
05"
0O
0N
18"
07"
1Q
0P
0:"
09"
0S
0R
1<"
0;"
1U
0T
1="
1V
#400000
0!
0J
14
